{
  "project_info": {
    "project_number": "881555671768",
    "firebase_url": "https://trueq-c67fe.firebaseio.com",
    "project_id": "trueq-c67fe",
    "storage_bucket": "trueq-c67fe.appspot.com"
  },
  "client": [
    {
      "client_info": {
        "mobilesdk_app_id": "1:881555671768:android:62e46069eaf611efc765ad",
        "android_client_info": {
          "package_name": "com.trueq.invow"
        }
      },
      "oauth_client": [
        {
          "client_id": "881555671768-ocmu667mraaj6fqh8vm38rp2v3mcqnrb.apps.googleusercontent.com",
          "client_type": 3
        }
      ],
      "api_key": [
        {
          "current_key": "AIzaSyBmEo75ekI41GSeWCU7Ehg_64nQUwI2dB4"
        }
      ],
      "services": {
        "appinvite_service": {
          "other_platform_oauth_client": [
            {
              "client_id": "881555671768-ocmu667mraaj6fqh8vm38rp2v3mcqnrb.apps.googleusercontent.com",
              "client_type": 3
            }
          ]
        }
      }
    }
  ],
  "configuration_version": "1"
}